Homework 5 Poker

Total Score: 70/100

Compiles       20 pts

Comments    10 pts

Checks for Integer     0 pts

Checks for duplicates   10 pts

Program works             50 pts

Use of arrays 		-20 pts

